Hierarchical Forecasting of Dengue Incidence in Sri Lanka
…
---

# DISC (DISease Counts) Package

```
## # A tibble: 18,980 x 18
##       V1  Year  Week StartDate  EndDate    Division    Dengue Dysentery Encephalitis
##    <int> <int> <int> <date>     <date>     <chr>        <int>     <int>        <int>
##  1     1  2006    52 2006-12-23 2006-12-29 Colombo         71         2            0
##  2     2  2006    52 2006-12-23 2006-12-29 Gampaha         12         0            0
##  3     3  2006    52 2006-12-23 2006-12-29 Kalutara        12         6            1
##  4     4  2006    52 2006-12-23 2006-12-29 Kandy           20         5            0
##  5     5  2006    52 2006-12-23 2006-12-29 Matale           4         0            0
##  6     6  2006    52 2006-12-23 2006-12-29 NuwaraEliya      1         1            0
##  7     7  2006    52 2006-12-23 2006-12-29 Galle            1         2            0
##  8     8  2006    52 2006-12-23 2006-12-29 Hambanthota      1         1            0
##  9     9  2006    52 2006-12-23 2006-12-29 Matara          11         3            2
## 10    10  2006    52 2006-12-23 2006-12-29 Jaffna           0         0            0
## # ... with 18,970 more rows, and 9 more variables: Enteric Fever <int>, Food Poisioning <int>,
## #   Leptospirosis <int>, Typhus Fever <int>, Viral Hepatistis <int>, Human Rabies <int>,
## #   Chickenpox <int>, Meningitis <int>, Leishmaniasis <dbl>
```
…
.left-column[
<img src="Figures/tsibble.JPG" width="80%" height="80%" style="display: block; margin: auto;" />
]

.right-column[

```r
DengueTEST<-tibble(Week,Date,Counts,Districts,Province)
DataDengueTEST<- DengueTEST%>% 
* as_tsibble(key=c(Province,Districts),index=Week)
DataDengueTEST
```

```
*## # A tsibble: 18,980 x 5 [1W]
*## # Key:       Province, Districts [26]
##        Week Date       Counts Districts Province
##      <week> <date>      <int> <chr>     <chr>   
##  1 2006 W52 2006-12-29     20 Kandy     Central 
##  2 2007 W01 2007-01-05     41 Kandy     Central 
##  3 2007 W02 2007-01-12     28 Kandy     Central 
##  4 2007 W03 2007-01-19     14 Kandy     Central 
##  5 2007 W04 2007-01-26     17 Kandy     Central 
##  6 2007 W05 2007-02-02     16 Kandy     Central 
##  7 2007 W06 2007-02-09     10 Kandy     Central 
##  8 2007 W07 2007-02-16      5 Kandy     Central 
##  9 2007 W08 2007-02-23      5 Kandy     Central 
## 10 2007 W09 2007-03-02      7 Kandy     Central 
## # ... with 18,970 more rows
```
…
# Spatial hierarchical structure

<img src="Figures/F10.JPG" width="80%" height="10%" style="display: block; margin: auto;" />

---

# Time series features

```r
Dengue_features<-SHS_DataDengueTEST %>% features(Counts, feature_set(pkgs = "feasts"))
Dengue_features
```

```
## # A tibble: 36 x 50
##    Province    Districts   trend_strength seasonal_strength~ seasonal_peak_y~ seasonal_trough_~
##    <chr*>      <chr*>               <dbl>              <dbl>            <dbl>             <dbl>
##  1 Central   ~ Kandy     ~          0.542              0.245               33                18
##  2 Central   ~ Matale    ~          0.445              0.194               50                18
##  3 Central   ~ NuwaraEliy~          0.351              0.203               33                15
##  4 Central   ~ <aggregate~          0.529              0.230               31                17
##  5 Eastern   ~ Ampara    ~          0.463              0.140               33                19
##  6 Eastern   ~ Batticaloa~          0.508              0.272                2                41
##  7 Eastern   ~ Kalmune   ~          0.414              0.162               27                42
##  8 Eastern   ~ Trincomale~          0.377              0.209                6                38
##  9 Eastern   ~ <aggregate~          0.548              0.264                6                41
## 10 NorthCentr~ Anuradhapu~          0.465              0.154               30                18
## # ... with 26 more rows, and 44 more variables: spikiness <dbl>, linearity <dbl>,
## #   curvature <dbl>, stl_e_acf1 <dbl>, stl_e_acf10 <dbl>, acf1 <dbl>, acf10 <dbl>,
## #   diff1_acf1 <dbl>, diff1_acf10 <dbl>, diff2_acf1 <dbl>, diff2_acf10 <dbl>,
## #   season_acf1 <dbl>, pacf5 <dbl>, diff1_pacf5 <dbl>, diff2_pacf5 <dbl>, season_pacf <dbl>,
## #   zero_run_mean <dbl>, nonzero_squared_cv <dbl>, zero_start_prop <dbl>, zero_end_prop <dbl>,
## #   lambda_guerrero <dbl>, kpss_stat <dbl>, kpss_pvalue <dbl>, pp_stat <dbl>, pp_pvalue <dbl>,
## #   ndiffs <int>, nsdiffs <int>, bp_stat <dbl>, bp_pvalue <dbl>, lb_stat <dbl>,
## #   lb_pvalue <dbl>, var_tiled_var <dbl>, var_tiled_mean <dbl>, shift_level_max <dbl>,
## #   shift_level_index <dbl>, shift_var_max <dbl>, shift_var_index <dbl>, shift_kl_max <dbl>,
…
---

# Feature-based visualization

<img src="Figures/FB3.JPG" width="60%" height="20%" style="display: block; margin: auto;" />

---

# Excluded features from PCA

```
## # A tibble: 36 x 6
##    Province     Districts    pp_pvalue nsdiffs bp_pvalue lb_pvalue
##    <chr*>       <chr*>           <dbl>   <int>     <dbl>     <dbl>
##  1 Central      Kandy             0.01       0         0         0
##  2 Central      Matale            0.01       0         0         0
##  3 Central      NuwaraEliya       0.01       0         0         0
##  4 Central      <aggregated>      0.01       0         0         0
##  5 Eastern      Ampara            0.01       0         0         0
##  6 Eastern      Batticaloa        0.01       0         0         0
##  7 Eastern      Kalmune           0.01       0         0         0
##  8 Eastern      Trincomalee       0.01       0         0         0
##  9 Eastern      <aggregated>      0.01       0         0         0
## 10 NorthCentral Anuradhapura      0.01       0         0         0
## # ... with 26 more rows
```

---

# Principal Component Analysis

```r
pcs<-Dengue_features%>% dplyr::select(-c(1,2,31,33,35,37)) %>% prcomp(scale = TRUE) %>%
  augment(Dengue_features)
pcs
```

```
## # A tibble: 36 x 87
##    .rownames Province     Districts    trend_strength seasonal_strength_year seasonal_peak_year
##    <chr>     <chr*>       <chr*>                <dbl>                  <dbl>              <dbl>
##  1 1         Central      Kandy                 0.542                  0.245                 33
##  2 2         Central      Matale                0.445                  0.194                 50
##  3 3         Central      NuwaraEliya           0.351                  0.203                 33
##  4 4         Central      <aggregated>          0.529                  0.230                 31
##  5 5         Eastern      Ampara                0.463                  0.140                 33
##  6 6         Eastern      Batticaloa            0.508                  0.272                  2
##  7 7         Eastern      Kalmune               0.414                  0.162                 27
##  8 8         Eastern      Trincomalee           0.377                  0.209                  6
##  9 9         Eastern      <aggregated>          0.548                  0.264                  6
## 10 10        NorthCentral Anuradhapura          0.465                  0.154                 30
## # ... with 26 more rows, and 81 more variables: seasonal_trough_year <dbl>, spikiness <dbl>,
## #   linearity <dbl>, curvature <dbl>, stl_e_acf1 <dbl>, stl_e_acf10 <dbl>, acf1 <dbl>,
## #   acf10 <dbl>, diff1_acf1 <dbl>, diff1_acf10 <dbl>, diff2_acf1 <dbl>, diff2_acf10 <dbl>,
## #   season_acf1 <dbl>, pacf5 <dbl>, diff1_pacf5 <dbl>, diff2_pacf5 <dbl>, season_pacf <dbl>,
## #   zero_run_mean <dbl>, nonzero_squared_cv <dbl>, zero_start_prop <dbl>, zero_end_prop <dbl>,
## #   lambda_guerrero <dbl>, kpss_stat <dbl>, kpss_pvalue <dbl>, pp_stat <dbl>, pp_pvalue <dbl>,
## #   ndiffs <int>, nsdiffs <int>, bp_stat <dbl>, bp_pvalue <dbl>, lb_stat <dbl>,
## #   lb_pvalue <dbl>, var_tiled_var <dbl>, var_tiled_mean <dbl>, shift_level_max <dbl>,
## #   shift_level_index <dbl>, shift_var_max <dbl>, shift_var_index <dbl>, shift_kl_max <dbl>,
…
---

# Spatial hierarchical forecasting workflow

```r
DengueTEST<-tibble(Week,Date,Counts,Districts,Province)
DengueTRAIN<-DengueTEST%>%dplyr::filter(lubridate::year(Week)<2020)
DataDengueTRAIN<-DengueTRAIN%>% 
* as_tsibble(key=c(Province,Districts),index=Week)
DataDengueTRAIN
```

```
*## # A tsibble: 17,654 x 5 [1W]
*## # Key:       Province, Districts [26]
##        Week Date       Counts Districts Province
##      <week> <date>      <int> <chr>     <chr>   
##  1 2006 W52 2006-12-29     20 Kandy     Central 
##  2 2007 W01 2007-01-05     41 Kandy     Central 
##  3 2007 W02 2007-01-12     28 Kandy     Central 
##  4 2007 W03 2007-01-19     14 Kandy     Central 
##  5 2007 W04 2007-01-26     17 Kandy     Central 
##  6 2007 W05 2007-02-02     16 Kandy     Central 
##  7 2007 W06 2007-02-09     10 Kandy     Central 
##  8 2007 W07 2007-02-16      5 Kandy     Central 
##  9 2007 W08 2007-02-23      5 Kandy     Central 
## 10 2007 W09 2007-03-02      7 Kandy     Central 
## # ... with 17,644 more rows
```
…
<img src="Figures/S2.JPG" width="60%" height="40%" style="display: block; margin: auto;" />

---

# Spatial hierarchical forecasting workflow

```r
HS_DataDengueTRAIN<-DataDengueTRAIN%>%
*         fabletools::aggregate_key(Province/Districts,Counts=sum(Counts))

HS_DataDengueTRAIN
```

```
*## # A tsibble: 24,444 x 4 [1W]
*## # Key:       Province, Districts [36]
##        Week Province     Districts    Counts
##      <week> <chr*>       <chr*>        <int>
##  1 2006 W52 <aggregated> <aggregated>    167
##  2 2007 W01 <aggregated> <aggregated>    181
##  3 2007 W02 <aggregated> <aggregated>    163
##  4 2007 W03 <aggregated> <aggregated>    131
##  5 2007 W04 <aggregated> <aggregated>    144
##  6 2007 W05 <aggregated> <aggregated>    144
##  7 2007 W06 <aggregated> <aggregated>    108
##  8 2007 W07 <aggregated> <aggregated>     75
##  9 2007 W08 <aggregated> <aggregated>     72
## 10 2007 W09 <aggregated> <aggregated>     59
## # ... with 24,434 more rows
```
…
# Spatial hierarchical forecasting workflow

<img src="Figures/SPST.JPG" width="85%" height="10%" style="display: block; margin: auto;" />

---

#### District level

```r
HS_DataDengueTRAIN%>% dplyr::filter(!is_aggregated(Districts)& !is_aggregated(Province))%>%print(n=3)
```

```
## # A tsibble: 17,654 x 4 [1W]
## # Key:       Province, Districts [26]
##       Week Province Districts   Counts
##     <week> <chr*>   <chr*>       <int>
*## 1 2006 W52 Central  Kandy           20
*## 2 2006 W52 Central  Matale           4
*## 3 2006 W52 Central  NuwaraEliya      1
## # ... with 17,651 more rows
```

#### Province level

```r
HS_DataDengueTRAIN%>% dplyr::filter(is_aggregated(Districts)& !is_aggregated(Province))%>%print(n=3)
```

```
## # A tsibble: 6,111 x 4 [1W]
## # Key:       Province, Districts [9]
##       Week Province     Districts    Counts
##     <week> <chr*>       <chr*>        <int>
*## 1 2006 W52 Central      <aggregated>     25
## 2 2006 W52 Eastern      <aggregated>      0
## 3 2006 W52 NorthCentral <aggregated>      5
## # ... with 6,108 more rows
```

---
#### Country level

```r
HS_DataDengueTRAIN%>% dplyr::filter(is_aggregated(Districts)& is_aggregated(Province))%>%print(n=13)
```

```
## # A tsibble: 679 x 4 [1W]
## # Key:       Province, Districts [1]
##        Week Province     Districts    Counts
##      <week> <chr*>       <chr*>        <int>
##  1 2006 W52 <aggregated> <aggregated>    167
##  2 2007 W01 <aggregated> <aggregated>    181
##  3 2007 W02 <aggregated> <aggregated>    163
##  4 2007 W03 <aggregated> <aggregated>    131
##  5 2007 W04 <aggregated> <aggregated>    144
##  6 2007 W05 <aggregated> <aggregated>    144
##  7 2007 W06 <aggregated> <aggregated>    108
##  8 2007 W07 <aggregated> <aggregated>     75
##  9 2007 W08 <aggregated> <aggregated>     72
## 10 2007 W09 <aggregated> <aggregated>     59
## 11 2007 W10 <aggregated> <aggregated>     75
## 12 2007 W11 <aggregated> <aggregated>     61
## 13 2007 W12 <aggregated> <aggregated>     35
## # ... with 666 more rows
```
…
# Spatial hierarchical forecasting workflow

.left-column[
<img src="Figures/fable.JPG" width="80%" height="80%" style="display: block; margin: auto;" />
]

.right-column[

```r
HS_DataDengueTRAIN%>%
    model(arima =ARIMA(Counts),snaive=SNAIVE(Counts),naive=NAIVE(Counts),ets=ETS(Counts),avg = MEAN(Counts))%>% forecast(h =52)%>%print(n=5)
```

```
## # A fable: 9,360 x 6 [1W]
## # Key:     Province, Districts, .model [180]
##   Province Districts .model     Week       Counts .mean
##   <chr*>   <chr*>    <chr>    <week>       <dist> <dbl>
## 1 Central  Kandy     arima  2020 W01  N(233, 988)  233.
## 2 Central  Kandy     arima  2020 W02 N(227, 1439)  227.
## 3 Central  Kandy     arima  2020 W03 N(231, 2597)  231.
## 4 Central  Kandy     arima  2020 W04 N(241, 4313)  241.
## 5 Central  Kandy     arima  2020 W05 N(255, 6242)  255.
## # ... with 9,355 more rows
```
…
# Spatial hierarchical forecasting workflow

<img src="Figures/S5.JPG" width="50%" height="5%" style="display: block; margin: auto;" />

---

# Spatial hierarchical forecasting workflow

```r
fc_TRAIN <- fit_TRAIN %>% forecast(h = 52)
fc_TRAIN
```

```
## # A fable: 35,568 x 6 [1W]
## # Key:     Province, Districts, .model [684]
##    Province Districts .model     Week        Counts .mean
##    <chr*>   <chr*>    <chr>    <week>        <dist> <dbl>
##  1 Central  Kandy     arima  2020 W01   N(233, 988)  233.
##  2 Central  Kandy     arima  2020 W02  N(227, 1439)  227.
##  3 Central  Kandy     arima  2020 W03  N(231, 2597)  231.
##  4 Central  Kandy     arima  2020 W04  N(241, 4313)  241.
##  5 Central  Kandy     arima  2020 W05  N(255, 6242)  255.
##  6 Central  Kandy     arima  2020 W06  N(266, 8266)  266.
##  7 Central  Kandy     arima  2020 W07 N(271, 10138)  271.
##  8 Central  Kandy     arima  2020 W08 N(272, 11787)  272.
##  9 Central  Kandy     arima  2020 W09 N(269, 13244)  269.
## 10 Central  Kandy     arima  2020 W10 N(265, 14574)  265.
## # ... with 35,558 more rows
```

---
## Reconciled forecasts

```
## # A fable: 52 x 6 [1W]
## # Key:     Province, Districts, .model [1]
##   Province Districts    .model       Week       Counts .mean
##   <chr*>   <chr*>       <chr>      <week>       <dist> <dbl>
*## 1 Central  <aggregated> bu_arima 2020 W01 N(378, 1154)  378.
## 2 Central  <aggregated> bu_arima 2020 W02 N(365, 1707)  365.
## 3 Central  <aggregated> bu_arima 2020 W03 N(367, 2995)  367.
## 4 Central  <aggregated> bu_arima 2020 W04 N(376, 4880)  376.
## # ... with 48 more rows
```

```
## # A fable: 52 x 6 [1W]
## # Key:     Province, Districts, .model [1]
##   Province Districts   .model       Week    Counts .mean
##   <chr*>   <chr*>      <chr>      <week>    <dist> <dbl>
*## 1 Central  NuwaraEliya bu_arima 2020 W01 N(18, 20)  17.9
## 2 Central  NuwaraEliya bu_arima 2020 W02 N(19, 27)  18.7
## 3 Central  NuwaraEliya bu_arima 2020 W03 N(20, 36)  20.5
## 4 Central  NuwaraEliya bu_arima 2020 W04 N(19, 49)  19.4
## # ... with 48 more rows
```

---
## Reconciled forecasts

```
## # A fable: 52 x 6 [1W]
## # Key:     Province, Districts, .model [1]
##   Province Districts .model       Week       Counts .mean
##   <chr*>   <chr*>    <chr>      <week>       <dist> <dbl>
*## 1 Central  Kandy     bu_arima 2020 W01  N(233, 988)  233.
## 2 Central  Kandy     bu_arima 2020 W02 N(227, 1439)  227.
## 3 Central  Kandy     bu_arima 2020 W03 N(231, 2597)  231.
## 4 Central  Kandy     bu_arima 2020 W04 N(241, 4313)  241.
## # ... with 48 more rows
```

```
## # A fable: 52 x 6 [1W]
## # Key:     Province, Districts, .model [1]
##   Province Districts .model       Week      Counts .mean
##   <chr*>   <chr*>    <chr>      <week>      <dist> <dbl>
*## 1 Central  Matale    bu_arima 2020 W01 N(127, 146)  127.
## 2 Central  Matale    bu_arima 2020 W02 N(119, 241)  119.
## 3 Central  Matale    bu_arima 2020 W03 N(115, 362)  115.
## 4 Central  Matale    bu_arima 2020 W04 N(115, 518)  115.
## # ... with 48 more rows
```
…
<img src="Figures/S6.JPG" width="47%" height="5%" style="display: block; margin: auto;" />

---

# Accuracy calculation - MASE

```r
ac_TRAIN<-accuracy(fc_TRAIN, HS_DataDengueTEST)
ac_TRAIN_MASE<-ac_TRAIN[,c(1,2,3,10)]
ac_TRAIN_MASE
```

```
## # A tibble: 684 x 4
##    .model Province     Districts     MASE
##    <chr>  <chr*>       <chr*>       <dbl>
##  1 arima  Central      Kandy         2.85
##  2 arima  Central      Matale        5.11
##  3 arima  Central      NuwaraEliya   3.02
##  4 arima  Central      <aggregated>  2.16
##  5 arima  Eastern      Ampara        2.58
##  6 arima  Eastern      Batticaloa    5.42
##  7 arima  Eastern      Kalmune       4.03
##  8 arima  Eastern      Trincomalee  12.6 
##  9 arima  Eastern      <aggregated>  7.70
## 10 arima  NorthCentral Anuradhapura  2.63
## # ... with 674 more rows
```
…
